name,price,min_delivery_time,category,sku,is_avalilable
Innamorata TESTER EDP 100 ml spray,737,Не указано,Главная > Парфюмерия > Женская парфюмерия > Blumarine > Innamorata TESTER EDP 100 ml spray,70713,Да
Blugirl Jus De Fleurs EDT 100 ml spray,721,Не указано,Главная > Парфюмерия > Женская парфюмерия > Blumarine > Blugirl Jus De Fleurs EDT 100 ml spray,63584,Да
Blugirl Jus De Fleurs EDT 50 ml spray,567,Не указано,Главная > Парфюмерия > Женская парфюмерия > Blumarine > Blugirl Jus De Fleurs EDT 50 ml spray,63586,Да
Bellissima Acqua Di Primavera EDT 30 ml spray,583,Не указано,Главная > Парфюмерия > Женская парфюмерия > Blumarine > Bellissima Acqua Di Primavera EDT 30 ml spray,62625,Да
