name,price,min_delivery_time,category,sku,is_avalilable
Eau D'Ikar TESTER EDT 100 ml spray,1447,Не указано,Главная > Парфюмерия > Мужская парфюмерия > Sisley > Eau D'Ikar TESTER EDT 100 ml spray,64501,Да
Eau D'Ikar EDT 100 ml spray,2305,Не указано,Главная > Парфюмерия > Мужская парфюмерия > Sisley > Eau D'Ikar EDT 100 ml spray,64499,Да
Eau D'Ikar EDT 50 ml spray,1493,Не указано,Главная > Парфюмерия > Мужская парфюмерия > Sisley > Eau D'Ikar EDT 50 ml spray,64502,Да
