name,price,min_delivery_time,category,sku,is_avalilable
DAMIEN BASH PARFUM LUCIFER 01 EDP 100 ml spray,905,Не указано,Главная > Парфюмерия > Нишевая парфюмерия > Для мужчин > Damien Bash > DAMIEN BASH PARFUM LUCIFER 01 EDP 100 ml spray,67404,Да
DAMIEN BASH PARFUM LUCIFER 03 EDP 100 ml spray,905,Не указано,Главная > Парфюмерия > Нишевая парфюмерия > Для мужчин > Damien Bash > DAMIEN BASH PARFUM LUCIFER 03 EDP 100 ml spray,67406,Да
