name,price,min_delivery_time,category,sku,is_avalilable
Expedition EDP 100 ml spray,453,Не указано,Главная > Парфюмерия > Нишевая парфюмерия > Для мужчин > Ajmal > Expedition EDP 100 ml spray,66249,Да
Shadow Grey for Him EDP 75 ml spray,905,Не указано,Главная > Парфюмерия > Нишевая парфюмерия > Для мужчин > Ajmal > Shadow Grey for Him EDP 75 ml spray,66255,Да
Carbon EDP 100 ml spray,527,Не указано,Главная > Парфюмерия > Нишевая парфюмерия > Для мужчин > Ajmal > Carbon EDP 100 ml spray,67153,Да
Enigma For Him EDP 75 ml spray,823,Не указано,Главная > Парфюмерия > Нишевая парфюмерия > Для мужчин > Ajmal > Enigma For Him EDP 75 ml spray,67156,Да
Neutron EDP 100 ml spray,433,Не указано,Главная > Парфюмерия > Нишевая парфюмерия > Для мужчин > Ajmal > Neutron EDP 100 ml spray,67164,Да
Sacrifice for Him EDP 90 ml spray,581,Не указано,Главная > Парфюмерия > Нишевая парфюмерия > Для мужчин > Ajmal > Sacrifice for Him EDP 90 ml spray,67168,Да
Titanium EDP 100 ml spray,530,Не указано,Главная > Парфюмерия > Нишевая парфюмерия > Для мужчин > Ajmal > Titanium EDP 100 ml spray,67173,Да
Vision EDP 100 ml spray,463,Не указано,Главная > Парфюмерия > Нишевая парфюмерия > Для мужчин > Ajmal > Vision EDP 100 ml spray,67174,Да
Chemystery EDP 90 ml spray,760,Не указано,Главная > Парфюмерия > Нишевая парфюмерия > Для мужчин > Ajmal > Chemystery EDP 90 ml spray,68792,Да
Silver Shade EDP 100 ml spray,743,Не указано,Главная > Парфюмерия > Нишевая парфюмерия > Для мужчин > Ajmal > Silver Shade EDP 100 ml spray,72509,Да
Lure for Him EDP 85 ml spray,1025,Не указано,Главная > Парфюмерия > Нишевая парфюмерия > Для мужчин > Ajmal > Lure for Him EDP 85 ml spray,66252,Да
Blu Ajmal EDP 90 ml spray,985,Не указано,Главная > Парфюмерия > Нишевая парфюмерия > Для мужчин > Ajmal > Blu Ajmal EDP 90 ml spray,78224,Да
