name,price,min_delivery_time,category,sku,is_avalilable
BYREDO GYPSY WATER EDP 100 ml spray,4063,Не указано,Главная > Парфюмерия > Женская парфюмерия > Byredo > BYREDO GYPSY WATER EDP 100 ml spray,80147,Да
BYREDO GYPSY WATER EDP 50 ml spray,2671,Не указано,Главная > Парфюмерия > Женская парфюмерия > Byredo > BYREDO GYPSY WATER EDP 50 ml spray,67264,Да
BYREDO ROSE NOIR EDP 100 ml spray,4063,Не указано,Главная > Парфюмерия > Женская парфюмерия > Byredo > BYREDO ROSE NOIR EDP 100 ml spray,78903,Да
BYREDO ROSE NOIR EDP 50 ml spray,2671,Не указано,Главная > Парфюмерия > Женская парфюмерия > Byredo > BYREDO ROSE NOIR EDP 50 ml spray,67265,Да
