name,price,min_delivery_time,category,sku,is_avalilable
Baldinini EDP 75 ml spray,775,Не указано,Главная > Парфюмерия > Женская парфюмерия > Baldinini > Baldinini EDP 75 ml spray,51432,Да
Baldinini EDP 40 ml spray,581,Не указано,Главная > Парфюмерия > Женская парфюмерия > Baldinini > Baldinini EDP 40 ml spray,51430,Да
