name,price,min_delivery_time,category,sku,is_avalilable
DKNY Love from New York for Men EDT 48 ml spray,695,Не указано,Главная > Парфюмерия > Мужская парфюмерия > Donna Karan > DKNY Love from New York for Men EDT 48 ml spray,56821,Да
DKNY Be Delicious Picnic in the Park for Men EDC 30 ml spray,617,Не указано,Главная > Парфюмерия > Мужская парфюмерия > Donna Karan > DKNY Be Delicious Picnic in the Park for Men EDC 30 ml spray,67433,Да
DKNY FOR MEN TESTER EDT 100 ml spray,1135,Не указано,Главная > Donna Karan > DKNY FOR MEN TESTER EDT 100 ml spray,78306,Да
DKNY Red Delicious Men TESTER EDT 50 ml spray,381,Не указано,Главная > Парфюмерия > Мужская парфюмерия > Donna Karan > DKNY Red Delicious Men TESTER EDT 50 ml spray,47540,Да
DKNY Be Delicious Men EDT 100 ml spray,1019,Не указано,Главная > Парфюмерия > Мужская парфюмерия > Donna Karan > DKNY Be Delicious Men EDT 100 ml spray,50660,Да
DKNY Be Delicious Men TESTER EDT 100 ml spray,857,Не указано,Главная > Парфюмерия > Мужская парфюмерия > Donna Karan > DKNY Be Delicious Men TESTER EDT 100 ml spray,47944,Да
DKNY Be Delicious Men EDT 50 ml spray,787,Не указано,Главная > Парфюмерия > Мужская парфюмерия > Donna Karan > DKNY Be Delicious Men EDT 50 ml spray,50659,Да
