name,price,min_delivery_time,category,sku,is_avalilable
Aqva Pour Homme Toniq EDT 100 ml spray,889,Не указано,Главная > Парфюмерия > Мужская парфюмерия > Bvlgari > Aqva Pour Homme Toniq EDT 100 ml spray,63372,Да
Aqva Pour Homme Toniq TESTER EDT 100 ml spray,831,Не указано,Главная > Парфюмерия > Мужская парфюмерия > Bvlgari > Aqva Pour Homme Toniq TESTER EDT 100 ml spray,63371,Да
Bvlgari Man TESTER EDT 100 ml spray,799,Не указано,Главная > Парфюмерия > Мужская парфюмерия > Bvlgari > Bvlgari Man TESTER EDT 100 ml spray,61685,Да
Bvlgari Man EDT 100 ml spray,897,Не указано,Главная > Парфюмерия > Мужская парфюмерия > Bvlgari > Bvlgari Man EDT 100 ml spray,61682,Да
Bvlgari Man EDT 60 ml spray,755,Не указано,Главная > Парфюмерия > Мужская парфюмерия > Bvlgari > Bvlgari Man EDT 60 ml spray,61681,Да
Bvlgari Man EDT mini 5 ml,85,Не указано,Главная > Парфюмерия > Мужская парфюмерия > Bvlgari > Bvlgari Man EDT mini 5 ml,61686,Да
Aqva Pour Homme Marine EDT 150 ml spray,1151,Не указано,Главная > Парфюмерия > Мужская парфюмерия > Bvlgari > Aqva Pour Homme Marine EDT 150 ml spray,74506,Да
Aqva Pour Homme Marine TESTER EDT 100 ml spray,791,Не указано,Главная > Парфюмерия > Мужская парфюмерия > Bvlgari > Aqva Pour Homme Marine TESTER EDT 100 ml spray,52316,Да
Aqva Pour Homme Marine EDT 100 ml spray,881,Не указано,Главная > Парфюмерия > Мужская парфюмерия > Bvlgari > Aqva Pour Homme Marine EDT 100 ml spray,52315,Да
Aqva Pour Homme Marine EDT 50 ml spray,727,Не указано,Главная > Парфюмерия > Мужская парфюмерия > Bvlgari > Aqva Pour Homme Marine EDT 50 ml spray,52313,Да
Aqva Pour Homme Marine EDT 30 ml spray,557,Не указано,Главная > Парфюмерия > Мужская парфюмерия > Bvlgari > Aqva Pour Homme Marine EDT 30 ml spray,52319,Да
Aqva Pour Homme Marine EDT mini 5 ml,169,Не указано,Главная > Парфюмерия > Мужская парфюмерия > Bvlgari > Aqva Pour Homme Marine EDT mini 5 ml,52317,Да
Aqva Pour Homme TESTER EDT 100 ml spray,877,Не указано,Главная > Парфюмерия > Мужская парфюмерия > Bvlgari > Aqva Pour Homme TESTER EDT 100 ml spray,47761,Да
Aqva Pour Homme EDT 100 ml spray,960,Не указано,Главная > Парфюмерия > Мужская парфюмерия > Bvlgari > Aqva Pour Homme EDT 100 ml spray,47501,Да
Aqva Pour Homme EDT 50 ml spray,735,Не указано,Главная > Парфюмерия > Мужская парфюмерия > Bvlgari > Aqva Pour Homme EDT 50 ml spray,47499,Да
Aqva Pour Homme EDT 30 ml spray,537,Не указано,Главная > Парфюмерия > Мужская парфюмерия > Bvlgari > Aqva Pour Homme EDT 30 ml spray,47502,Да
Aqva Pour Homme EDT mini 5 ml,151,Не указано,Главная > Парфюмерия > Мужская парфюмерия > Bvlgari > Aqva Pour Homme EDT mini 5 ml,47504,Да
Bvlgari Man Extreme EDT 60 ml spray,743,Не указано,Главная > Bvlgari > Bvlgari Man Extreme EDT 60 ml spray,74509,Да
BVLGARI MAN EXTREME EDT 30 ml spray,535,Не указано,Главная > Bvlgari > BVLGARI MAN EXTREME EDT 30 ml spray,78896,Да
Bvlgari Man Extreme EDT mini 5 ml,165,Не указано,Главная > Bvlgari > Bvlgari Man Extreme EDT mini 5 ml,75786,Да
Aqva Pour Homme Marine Toniq TESTER EDT 100 ml spray,725,Не указано,Главная > Парфюмерия > Мужская парфюмерия > Bvlgari > Aqva Pour Homme Marine Toniq TESTER EDT 100 ml spray,63928,Да
BLV Pour Homme EDT mini 5 ml,85,Не указано,Главная > Парфюмерия > Мужская парфюмерия > Bvlgari > BLV Pour Homme EDT mini 5 ml,55448,Да
Bvlgari Extreme Pour Homme TESTER EDT 100 ml spray,899,Не указано,Главная > Парфюмерия > Мужская парфюмерия > Bvlgari > Bvlgari Extreme Pour Homme TESTER EDT 100 ml spray,54261,Да
Bvlgari Extreme Pour Homme EDT 50 ml spray,633,Не указано,Главная > Парфюмерия > Мужская парфюмерия > Bvlgari > Bvlgari Extreme Pour Homme EDT 50 ml spray,54258,Да
Bvlgari Pour Homme TESTER EDT 100 ml spray,790,Не указано,Главная > Парфюмерия > Мужская парфюмерия > Bvlgari > Bvlgari Pour Homme TESTER EDT 100 ml spray,50293,Да
Bvlgari Pour Homme EDT 100 ml spray,929,Не указано,Главная > Парфюмерия > Мужская парфюмерия > Bvlgari > Bvlgari Pour Homme EDT 100 ml spray,50292,Да
Bvlgari Pour Homme Soir EDT 50 ml spray,753,Не указано,Главная > Парфюмерия > Мужская парфюмерия > Bvlgari > Bvlgari Pour Homme Soir EDT 50 ml spray,51111,Да
Aqva Amara EDT 100 ml spray,931,Не указано,Главная > Парфюмерия > Мужская парфюмерия > Bvlgari > Aqva Amara EDT 100 ml spray,78242,Да
Aqva Amara EDT 50 ml spray,699,Не указано,Главная > Парфюмерия > Мужская парфюмерия > Bvlgari > Aqva Amara EDT 50 ml spray,77530,Да
