name,price,min_delivery_time,category,sku,is_avalilable
Eau Du Soir TESTER EDP 100 ml spray,2815,Не указано,Главная > Парфюмерия > Женская парфюмерия > Sisley > Eau Du Soir TESTER EDP 100 ml spray,52525,Да
Eau Du Soir EDP 50 ml spray,2295,Не указано,Главная > Парфюмерия > Женская парфюмерия > Sisley > Eau Du Soir EDP 50 ml spray,52511,Да
Eau Du Soir EDP 30 ml spray,1507,Не указано,Главная > Парфюмерия > Женская парфюмерия > Sisley > Eau Du Soir EDP 30 ml spray,52514,Да
Eau Du Soir EDP 15 ml spray,1645,Не указано,Главная > Парфюмерия > Женская парфюмерия > Sisley > Eau Du Soir EDP 15 ml spray,52517,Да
Soir De Lune EDP 100 ml spray,3979,Не указано,Главная > Парфюмерия > Женская парфюмерия > Sisley > Soir De Lune EDP 100 ml spray,52530,Да
Soir De Lune EDP 50 ml spray,2061,Не указано,Главная > Парфюмерия > Женская парфюмерия > Sisley > Soir De Lune EDP 50 ml spray,52526,Да
Soir De Lune EDP 30 ml spray,1507,Не указано,Главная > Парфюмерия > Женская парфюмерия > Sisley > Soir De Lune EDP 30 ml spray,52528,Да
Eau de Campagne EDT 100 ml spray,2035,Не указано,Главная > Парфюмерия > Женская парфюмерия > Sisley > Eau de Campagne EDT 100 ml spray,57174,Да
Eau de Campagne EDT 50 ml spray,1583,Не указано,Главная > Парфюмерия > Женская парфюмерия > Sisley > Eau de Campagne EDT 50 ml spray,69772,Да
Eau de Sisley 2 TESTER EDT 100 ml spray,1513,Не указано,Главная > Парфюмерия > Женская парфюмерия > Sisley > Eau de Sisley 2 TESTER EDT 100 ml spray,57183,Да
