name,price,min_delivery_time,category,sku,is_avalilable
Sergio Nero BOY TOBACCO FLAVOR EDT 100 ml spray,375,Не указано,Главная > Парфюмерия > Мужская парфюмерия > Sergio Nero > Sergio Nero BOY TOBACCO FLAVOR EDT 100 ml spray,69009,Да
Sergio Nero BOY ORANGE COFFE EDT 100 ml spray,373,Не указано,Главная > Парфюмерия > Мужская парфюмерия > Sergio Nero > Sergio Nero BOY ORANGE COFFE EDT 100 ml spray,69008,Да
Sergio Nero BLACK EDT 100 ml spray,427,Не указано,Главная > Парфюмерия > Мужская парфюмерия > Sergio Nero > Sergio Nero BLACK EDT 100 ml spray,69005,Да
Sergio Nero BLACK EDT 50 ml spray,315,Не указано,Главная > Парфюмерия > Мужская парфюмерия > Sergio Nero > Sergio Nero BLACK EDT 50 ml spray,69007,Да
Sergio Nero BLACK EDT 30 ml spray,129,Не указано,Главная > Парфюмерия > Мужская парфюмерия > Sergio Nero > Sergio Nero BLACK EDT 30 ml spray,69006,Да
