name,price,min_delivery_time,category,sku,is_avalilable
Potion For Man EDP 100 ml spray,1087,Не указано,Главная > Парфюмерия > Мужская парфюмерия > DSquared2 > Potion For Man EDP 100 ml spray,67457,Да
Potion For Man EDP 50 ml spray,663,Не указано,Главная > Парфюмерия > Мужская парфюмерия > DSquared2 > Potion For Man EDP 50 ml spray,64982,Да
He Wood Rocky Mountain Wood TESTER EDT 100 ml spray,929,Не указано,Главная > Парфюмерия > Мужская парфюмерия > DSquared2 > He Wood Rocky Mountain Wood TESTER EDT 100 ml spray,55492,Да
He Wood Rocky Mountain Wood EDT 100 ml spray,1030,Не указано,Главная > Парфюмерия > Мужская парфюмерия > DSquared2 > He Wood Rocky Mountain Wood EDT 100 ml spray,55487,Да
He Wood Rocky Mountain Wood EDT 50 ml spray,775,Не указано,Главная > Парфюмерия > Мужская парфюмерия > DSquared2 > He Wood Rocky Mountain Wood EDT 50 ml spray,55489,Да
He Wood EDT 100 ml spray,1009,Не указано,Главная > Парфюмерия > Мужская парфюмерия > DSquared2 > He Wood EDT 100 ml spray,53222,Да
He Wood TESTER EDT 100 ml spray,907,Не указано,Главная > Парфюмерия > Мужская парфюмерия > DSquared2 > He Wood TESTER EDT 100 ml spray,53221,Да
He Wood EDT 50 ml spray,773,Не указано,Главная > Парфюмерия > Мужская парфюмерия > DSquared2 > He Wood EDT 50 ml spray,53218,Да
He Wood EDT 30 ml spray,549,Не указано,Главная > Парфюмерия > Мужская парфюмерия > DSquared2 > He Wood EDT 30 ml spray,53220,Да
Potion Blue Cadet TESTER EDT 100 ml spray,695,Не указано,Главная > Парфюмерия > Мужская парфюмерия > DSquared2 > Potion Blue Cadet TESTER EDT 100 ml spray,78309,Да
Potion Blue Cadet EDT 50 ml spray,775,Не указано,Главная > Парфюмерия > Мужская парфюмерия > DSquared2 > Potion Blue Cadet EDT 50 ml spray,78308,Да
