name,price,min_delivery_time,category,sku,is_avalilable
L`Homme TESTER EDT 100 ml spray,519,Не указано,Главная > Парфюмерия > Мужская парфюмерия > Lanvin > L`Homme TESTER EDT 100 ml spray,47637,Да
L`Homme EDT 100 ml spray,613,Не указано,Главная > Парфюмерия > Мужская парфюмерия > Lanvin > L`Homme EDT 100 ml spray,47635,Да
L`Homme Sport EDT 100 ml spray,610,Не указано,Главная > Парфюмерия > Мужская парфюмерия > Lanvin > L`Homme Sport EDT 100 ml spray,55013,Да
Oxygene Homme EDT 100 ml spray,531,Не указано,Главная > Парфюмерия > Мужская парфюмерия > Lanvin > Oxygene Homme EDT 100 ml spray,51055,Да
