name,price,min_delivery_time,category,sku,is_avalilable
Giorgio Monti  Latino EDT 100 ml spray,643,Не указано,Главная > Парфюмерия > Мужская парфюмерия > Giorgio Monti > Giorgio Monti  Latino EDT 100 ml spray,60402,Да
GIORGIO MONTI MENPHIS NEN EDP 100 ml spray,523,Не указано,Главная > Парфюмерия > Мужская парфюмерия > Giorgio Monti > GIORGIO MONTI MENPHIS NEN EDP 100 ml spray,68906,Да
GIORGIO MONTI PUR SANG MEN EDT 100 ml spray,695,Не указано,Главная > Парфюмерия > Мужская парфюмерия > Giorgio Monti > GIORGIO MONTI PUR SANG MEN EDT 100 ml spray,68908,Да
GIORGIO MONTI ART CLUB MEN EDP 100 ml spray,633,Не указано,Главная > Парфюмерия > Мужская парфюмерия > Giorgio Monti > GIORGIO MONTI ART CLUB MEN EDP 100 ml spray,68903,Да
