name,price,min_delivery_time,category,sku,is_avalilable
Aries EDP 50 ml spray,767,Не указано,Главная > Парфюмерия > Нишевая парфюмерия > Для женщин > CnR Create > Aries EDP 50 ml spray,74576,Да
Aries TESTER EDP 50 ml spray,535,Не указано,Главная > Парфюмерия > Нишевая парфюмерия > Для женщин > CnR Create > Aries TESTER EDP 50 ml spray,72298,Да
Aquarius TESTER EDP 50 ml spray,535,Не указано,Главная > Парфюмерия > Нишевая парфюмерия > Для женщин > CnR Create > Aquarius TESTER EDP 50 ml spray,72294,Да
Aquarius EDP 50 ml spray,767,Не указано,Главная > Парфюмерия > Нишевая парфюмерия > Для женщин > CnR Create > Aquarius EDP 50 ml spray,72290,Да
CNR CREATE TAURUS TESTER EDP 50 ml spray,535,Не указано,Главная > CnR Create > CNR CREATE TAURUS TESTER EDP 50 ml spray,78960,Да
Taurus EDP 50 ml spray,767,Не указано,Главная > CnR Create > Taurus EDP 50 ml spray,72329,Да
CNR CREATE CAPRICORN TESTER EDP 50 ml spray,535,Не указано,Главная > CnR Create > CNR CREATE CAPRICORN TESTER EDP 50 ml spray,78956,Да
Capricorn EDP 50 ml spray,767,Не указано,Главная > CnR Create > Capricorn EDP 50 ml spray,72305,Да
Cancer EDP 50 ml spray,2425,Не указано,Главная > Парфюмерия > Нишевая парфюмерия > Для женщин > CnR Create > Cancer EDP 50 ml spray,72301,Да
Libra EDP 50 ml spray,767,Не указано,Главная > Парфюмерия > Нишевая парфюмерия > Для женщин > CnR Create > Libra EDP 50 ml spray,72316,Да
Scorpio EDP 50 ml spray,767,Не указано,Главная > Парфюмерия > Нишевая парфюмерия > Для женщин > CnR Create > Scorpio EDP 50 ml spray,72325,Да
Gemini EDP 50 ml spray,767,Не указано,Главная > Парфюмерия > Нишевая парфюмерия > Для женщин > CnR Create > Gemini EDP 50 ml spray,72309,Да
Pisces EDP 50 ml spray,767,Не указано,Главная > Парфюмерия > Нишевая парфюмерия > Для женщин > CnR Create > Pisces EDP 50 ml spray,72559,Да
Sagittarius EDP 50 ml spray,767,Не указано,Главная > Парфюмерия > Нишевая парфюмерия > Для женщин > CnR Create > Sagittarius EDP 50 ml spray,78286,Да
