name,price,min_delivery_time,category,sku,is_avalilable
Guilty Pour Homme TESTER EDT 90 ml spray,993,Не указано,Главная > Парфюмерия > Мужская парфюмерия > Gucci > Guilty Pour Homme TESTER EDT 90 ml spray,61845,Да
Guilty Pour Homme EDT 90 ml spray,1221,Не указано,Главная > Парфюмерия > Мужская парфюмерия > Gucci > Guilty Pour Homme EDT 90 ml spray,61839,Да
Guilty Pour Homme EDT 50 ml spray,931,Не указано,Главная > Парфюмерия > Мужская парфюмерия > Gucci > Guilty Pour Homme EDT 50 ml spray,61837,Да
Guilty Pour Homme EDT 30 ml spray,809,Не указано,Главная > Парфюмерия > Мужская парфюмерия > Gucci > Guilty Pour Homme EDT 30 ml spray,61844,Да
Guilty Pour Homme EDT mini 5 ml,105,Не указано,Главная > Парфюмерия > Мужская парфюмерия > Gucci > Guilty Pour Homme EDT mini 5 ml,72641,Да
Guilty Intense Pour Homme TESTER EDT 90 ml spray,1179,Не указано,Главная > Парфюмерия > Мужская парфюмерия > Gucci > Guilty Intense Pour Homme TESTER EDT 90 ml spray,64406,Да
Guilty Intense Pour Homme EDT 90 ml spray,1240,Не указано,Главная > Парфюмерия > Мужская парфюмерия > Gucci > Guilty Intense Pour Homme EDT 90 ml spray,64405,Да
Guilty Intense Pour Homme EDT 50 ml spray,931,Не указано,Главная > Парфюмерия > Мужская парфюмерия > Gucci > Guilty Intense Pour Homme EDT 50 ml spray,64403,Да
GUCCI GUILTY INTENSE POUR HOMME EDT mini 5 ml,139,Не указано,Главная > Парфюмерия > Мужская парфюмерия > Gucci > GUCCI GUILTY INTENSE POUR HOMME EDT mini 5 ml,77751,Да
Gucci By Gucci Pour Homme TESTER  EDT 90 ml spray,1025,Не указано,Главная > Парфюмерия > Мужская парфюмерия > Gucci > Gucci By Gucci Pour Homme TESTER  EDT 90 ml spray,53733,Да
Gucci By Gucci Pour Homme EDT 90 ml spray,1210,Не указано,Главная > Парфюмерия > Мужская парфюмерия > Gucci > Gucci By Gucci Pour Homme EDT 90 ml spray,53727,Да
Gucci By Gucci Pour Homme EDT 50 ml spray,993,Не указано,Главная > Парфюмерия > Мужская парфюмерия > Gucci > Gucci By Gucci Pour Homme EDT 50 ml spray,53724,Да
Gucci by Gucci Sport TESTER EDT 90 ml spray ,1017,Не указано,Главная > Парфюмерия > Мужская парфюмерия > Gucci > Gucci by Gucci Sport TESTER EDT 90 ml spray ,57456,Да
Gucci by Gucci Sport EDT 90 ml spray,1353,Не указано,Главная > Парфюмерия > Мужская парфюмерия > Gucci > Gucci by Gucci Sport EDT 90 ml spray,57453,Да
Gucci by Gucci Sport EDT 30 ml spray,567,Не указано,Главная > Парфюмерия > Мужская парфюмерия > Gucci > Gucci by Gucci Sport EDT 30 ml spray,57452,Да
Gucci Pour Homme II EDT 100 ml spray,1377,Не указано,Главная > Парфюмерия > Мужская парфюмерия > Gucci > Gucci Pour Homme II EDT 100 ml spray,51459,Да
Guilty Black Pour Homme TESTER EDT 90 ml spray,991,Не указано,Главная > Парфюмерия > Мужская парфюмерия > Gucci > Guilty Black Pour Homme TESTER EDT 90 ml spray,72639,Да
Guilty Black Pour Homme EDT 90 ml spray,1225,Не указано,Главная > Парфюмерия > Мужская парфюмерия > Gucci > Guilty Black Pour Homme EDT 90 ml spray,71298,Да
Guilty Black Pour Homme EDT 30 ml spray,710,Не указано,Главная > Парфюмерия > Мужская парфюмерия > Gucci > Guilty Black Pour Homme EDT 30 ml spray,71123,Да
Guilty Black Pour Homme EDT mini 8 ml,240,Не указано,Главная > Парфюмерия > Мужская парфюмерия > Gucci > Guilty Black Pour Homme EDT mini 8 ml,74681,Да
Made to Measure Pour Homme TESTER EDT 90 ml spray,929,Не указано,Главная > Парфюмерия > Мужская парфюмерия > Gucci > Made to Measure Pour Homme TESTER EDT 90 ml spray,76829,Да
Made to Measure Pour Homme EDT 30 ml spray,733,Не указано,Главная > Парфюмерия > Мужская парфюмерия > Gucci > Made to Measure Pour Homme EDT 30 ml spray,75689,Да
Made to Measure Pour Homme EDT mini 5 ml,151,Не указано,Главная > Парфюмерия > Мужская парфюмерия > Gucci > Made to Measure Pour Homme EDT mini 5 ml,76828,Да
