name,price,min_delivery_time,category,sku,is_avalilable
Sander For Men TESTER EDT 125 ml spray,589,Не указано,Главная > Парфюмерия > Мужская парфюмерия > Jil Sander > Sander For Men TESTER EDT 125 ml spray,47601,Да
Sander For Men EDT 125 ml spray,683,Не указано,Главная > Парфюмерия > Мужская парфюмерия > Jil Sander > Sander For Men EDT 125 ml spray,47598,Да
