name,price,min_delivery_time,category,sku,is_avalilable
L’Eau 2 Kenzo pour Homme TESTER EDT 100 ml spray,823,Не указано,Главная > Парфюмерия > Мужская парфюмерия > Kenzo > L’Eau 2 Kenzo pour Homme TESTER EDT 100 ml spray,70556,Да
L’Eau 2 Kenzo pour Homme EDT 100 ml spray,1009,Не указано,Главная > Парфюмерия > Мужская парфюмерия > Kenzo > L’Eau 2 Kenzo pour Homme EDT 100 ml spray,67762,Да
L’Eau 2 Kenzo pour Homme EDT 50 ml spray,647,Не указано,Главная > Парфюмерия > Мужская парфюмерия > Kenzo > L’Eau 2 Kenzo pour Homme EDT 50 ml spray,67764,Да
L’Eau 2 Kenzo pour Homme EDT 30 ml spray,539,Не указано,Главная > Парфюмерия > Мужская парфюмерия > Kenzo > L’Eau 2 Kenzo pour Homme EDT 30 ml spray,67763,Да
Kenzo Homme Sport EDT 100 ml spray,1027,Не указано,Главная > Парфюмерия > Мужская парфюмерия > Kenzo > Kenzo Homme Sport EDT 100 ml spray,67749,Да
Kenzo Homme Sport EDT 50 ml spray,737,Не указано,Главная > Парфюмерия > Мужская парфюмерия > Kenzo > Kenzo Homme Sport EDT 50 ml spray,67751,Да
Kenzo Homme Sport EDT 30 ml spray,783,Не указано,Главная > Парфюмерия > Мужская парфюмерия > Kenzo > Kenzo Homme Sport EDT 30 ml spray,67750,Да
Kenzo pour Homme TESTER EDT 100 ml spray,889,Не указано,Главная > Парфюмерия > Мужская парфюмерия > Kenzo > Kenzo pour Homme TESTER EDT 100 ml spray,47612,Да
Kenzo pour Homme EDT 50 ml spray,733,Не указано,Главная > Парфюмерия > Мужская парфюмерия > Kenzo > Kenzo pour Homme EDT 50 ml spray,47611,Да
L’Eau Par Kenzo Homme TESTER EDT 100 ml spray,787,Не указано,Главная > Парфюмерия > Мужская парфюмерия > Kenzo > L’Eau Par Kenzo Homme TESTER EDT 100 ml spray,50994,Да
L’Eau Par Kenzo Homme EDT 100 ml spray,1015,Не указано,Главная > Парфюмерия > Мужская парфюмерия > Kenzo > L’Eau Par Kenzo Homme EDT 100 ml spray,50992,Да
L'EAU PAR KENZO homme Mirror Edition EDT 50 ml spray,807,Не указано,Главная > Парфюмерия > Мужская парфюмерия > Kenzo > L'EAU PAR KENZO homme Mirror Edition EDT 50 ml spray,77796,Да
L’Eau Par Kenzo Homme EDT 50 ml spray,767,Не указано,Главная > Парфюмерия > Мужская парфюмерия > Kenzo > L’Eau Par Kenzo Homme EDT 50 ml spray,50989,Да
L’Eau Par Kenzo Homme EDT 30 ml spray,533,Не указано,Главная > Парфюмерия > Мужская парфюмерия > Kenzo > L’Eau Par Kenzo Homme EDT 30 ml spray,50991,Да
L’Eau Par Kenzo Homme RYOKO EDT 20 ml spray,501,Не указано,Главная > Парфюмерия > Мужская парфюмерия > Kenzo > L’Eau Par Kenzo Homme RYOKO EDT 20 ml spray,51002,Да
L’Eau Par Kenzo Homme EDT mini 5 ml,149,Не указано,Главная > Парфюмерия > Мужская парфюмерия > Kenzo > L’Eau Par Kenzo Homme EDT mini 5 ml,50993,Да
Kenzo Homme Sport Extreme TESTER EDT 100 ml spray,837,Не указано,Главная > Парфюмерия > Мужская парфюмерия > Kenzo > Kenzo Homme Sport Extreme TESTER EDT 100 ml spray,77794,Да
Kenzo Homme Boisee EDT 100 ml spray,1073,Не указано,Главная > Парфюмерия > Мужская парфюмерия > Kenzo > Kenzo Homme Boisee EDT 100 ml spray,59355,Да
L'Eau Par Kenzo Colors Pour Homme EDT 50 ml spray,885,Не указано,Главная > Парфюмерия > Мужская парфюмерия > Kenzo > L'Eau Par Kenzo Colors Pour Homme EDT 50 ml spray,74757,Да
