name,price,min_delivery_time,category,sku,is_avalilable
Poeme EDP 100 ml spray,1995,Не указано,Главная > Парфюмерия > Женская парфюмерия > Lancome > Poeme EDP 100 ml spray,51862,Да
Hypnose TESTER EDP 75 ml spray,1707,Не указано,Главная > Парфюмерия > Женская парфюмерия > Lancome > Hypnose TESTER EDP 75 ml spray,51337,Да
Hypnose EDP 50 ml spray,1241,Не указано,Главная > Парфюмерия > Женская парфюмерия > Lancome > Hypnose EDP 50 ml spray,48951,Да
Lancome Hypnose EDP 30 ml spray,1025,Не указано,Главная > Парфюмерия > Женская парфюмерия > Lancome > Lancome Hypnose EDP 30 ml spray,48950,Да
Hypnose Eau De Toilette EDT 50 ml spray,960,Не указано,Главная > Парфюмерия > Женская парфюмерия > Lancome > Hypnose Eau De Toilette EDT 50 ml spray,48959,Да
Miracle EDP 100 ml spray,1617,Не указано,Главная > Парфюмерия > Женская парфюмерия > Lancome > Miracle EDP 100 ml spray,49600,Да
Miracle EDP 30 ml spray,897,Не указано,Главная > Парфюмерия > Женская парфюмерия > Lancome > Miracle EDP 30 ml spray,49592,Да
Tresor EDP 30 ml spray,1295,Не указано,Главная > Парфюмерия > Женская парфюмерия > Lancome > Tresor EDP 30 ml spray,49619,Да
La Vie Est Belle EDP 50 ml spray,1447,Не указано,Главная > Парфюмерия > Женская парфюмерия > Lancome > La Vie Est Belle EDP 50 ml spray,70912,Да
La Vie Est Belle EDP 30 ml spray,1151,Не указано,Главная > Парфюмерия > Женская парфюмерия > Lancome > La Vie Est Belle EDP 30 ml spray,70727,Да
O De L’Orangerie TESTER EDT 75 ml spray UNBOX,1079,Не указано,Главная > Парфюмерия > Женская парфюмерия > Lancome > O De L’Orangerie TESTER EDT 75 ml spray UNBOX,63900,Да
O De L’Orangerie EDT 75 ml spray,1239,Не указано,Главная > Парфюмерия > Женская парфюмерия > Lancome > O De L’Orangerie EDT 75 ml spray,63896,Да
O De L’Orangerie TESTER EDT 75 ml spray,1135,Не указано,Главная > Парфюмерия > Женская парфюмерия > Lancome > O De L’Orangerie TESTER EDT 75 ml spray,63892,Да
O De L’Orangerie EDT 50 ml spray,993,Не указано,Главная > Парфюмерия > Женская парфюмерия > Lancome > O De L’Orangerie EDT 50 ml spray,63894,Да
O D'Azur EDT 50 ml spray,993,Не указано,Главная > Парфюмерия > Женская парфюмерия > Lancome > O D'Azur EDT 50 ml spray,59743,Да
Tresor In Love TESTER EDP 75 ml spray,1147,Не указано,Главная > Парфюмерия > Женская парфюмерия > Lancome > Tresor In Love TESTER EDP 75 ml spray,58659,Да
Tresor In Love EDP 75 ml spray,1523,Не указано,Главная > Парфюмерия > Женская парфюмерия > Lancome > Tresor In Love EDP 75 ml spray,58658,Да
Tresor In Love EDP 50 ml spray,1197,Не указано,Главная > Парфюмерия > Женская парфюмерия > Lancome > Tresor In Love EDP 50 ml spray,58657,Да
Tresor In Love EDP 30 ml spray,973,Не указано,Главная > Парфюмерия > Женская парфюмерия > Lancome > Tresor In Love EDP 30 ml spray,58655,Да
Lancome Hypnose Senses EDP 50 ml spray,1225,Не указано,Главная > Парфюмерия > Женская парфюмерия > Lancome > Lancome Hypnose Senses EDP 50 ml spray,55971,Да
Miracle So Magic EDP 30 ml spray,885,Не указано,Главная > Парфюмерия > Женская парфюмерия > Lancome > Miracle So Magic EDP 30 ml spray,49613,Да
