name,price,min_delivery_time,category,sku,is_avalilable
Tubereuse Indiana EDT 75 ml spray,1863,Не указано,Главная > Парфюмерия > Нишевая парфюмерия > Для женщин > Creed > Tubereuse Indiana EDT 75 ml spray,64566,Да
Love in Black EDT 75 ml spray,2290,Не указано,Главная > Парфюмерия > Нишевая парфюмерия > Для женщин > Creed > Love in Black EDT 75 ml spray,57545,Да
Love in White TESTER EDT 75 ml spray,2475,Не указано,Главная > Парфюмерия > Нишевая парфюмерия > Для женщин > Creed > Love in White TESTER EDT 75 ml spray,57551,Да
Love in White EDT 75 ml spray,2903,Не указано,Главная > Парфюмерия > Нишевая парфюмерия > Для женщин > Creed > Love in White EDT 75 ml spray,57549,Да
Love in White EDT 30 ml spray,1645,Не указано,Главная > Парфюмерия > Нишевая парфюмерия > Для женщин > Creed > Love in White EDT 30 ml spray,68848,Да
"Love in White EDT vail 2,5 ml",105,Не указано,"Главная > Парфюмерия > Нишевая парфюмерия > Для женщин > Creed > Love in White EDT vail 2,5 ml",57552,Да
Creed Acqua Fiorentina EDP 75 ml spray,2349,Не указано,Главная > Парфюмерия > Нишевая парфюмерия > Для женщин > Creed > Creed Acqua Fiorentina EDP 75 ml spray,58196,Да
Creed Acqua Fiorentina EDP 30 ml spray,1657,Не указано,Главная > Парфюмерия > Нишевая парфюмерия > Для женщин > Creed > Creed Acqua Fiorentina EDP 30 ml spray,69337,Да
