name,price,min_delivery_time,category,sku,is_avalilable
Lady Million Eau de Toilette TESTER EDT 80 ml spray,1337,Не указано,Главная > Парфюмерия > Женская парфюмерия > Paco Rabanne > Lady Million Eau de Toilette TESTER EDT 80 ml spray,75095,Да
Lady Million EDP 50 ml spray,1119,Не указано,Главная > Парфюмерия > Женская парфюмерия > Paco Rabanne > Lady Million EDP 50 ml spray,59203,Да
Lady Million EDP 30 ml spray,719,Не указано,Главная > Парфюмерия > Женская парфюмерия > Paco Rabanne > Lady Million EDP 30 ml spray,59201,Да
Ultraviolet EDP 80 ml spray ,1125,Не указано,Главная > Парфюмерия > Женская парфюмерия > Paco Rabanne > Ultraviolet EDP 80 ml spray ,49811,Да
Ultraviolet TESTER EDP 80 ml spray,899,Не указано,Главная > Парфюмерия > Женская парфюмерия > Paco Rabanne > Ultraviolet TESTER EDP 80 ml spray,47852,Да
Ultraviolet EDP 50 ml spray,855,Не указано,Главная > Парфюмерия > Женская парфюмерия > Paco Rabanne > Ultraviolet EDP 50 ml spray,49809,Да
Ultraviolet EDP 30 ml spray,631,Не указано,Главная > Парфюмерия > Женская парфюмерия > Paco Rabanne > Ultraviolet EDP 30 ml spray,49808,Да
Black XS Pour Femme TESTER EDT 80 ml spray,1040,Не указано,Главная > Парфюмерия > Женская парфюмерия > Paco Rabanne > Black XS Pour Femme TESTER EDT 80 ml spray,51834,Да
Black XS Pour Femme EDT 30 ml spray,549,Не указано,Главная > Парфюмерия > Женская парфюмерия > Paco Rabanne > Black XS Pour Femme EDT 30 ml spray,51825,Да
Black XS Potion for Her EDT 80 ml spray,1611,Не указано,Главная > Парфюмерия > Женская парфюмерия > Paco Rabanne > Black XS Potion for Her EDT 80 ml spray,77889,Да
