name,price,min_delivery_time,category,sku,is_avalilable
D'ORSAY LA DANDY EDP 100 ml spray,2353,Не указано,Главная > Парфюмерия > Женская парфюмерия > D'Orsay > D'ORSAY LA DANDY EDP 100 ml spray,67450,Да
D'ORSAY L'INTRIGANTE EDP 50 ml spray,839,Не указано,Главная > Парфюмерия > Женская парфюмерия > D'Orsay > D'ORSAY L'INTRIGANTE EDP 50 ml spray,67455,Да
D'Orsay Etiquette Bleue EDT 100 ml spray,1085,Не указано,Главная > Парфюмерия > Женская парфюмерия > D'Orsay > D'Orsay Etiquette Bleue EDT 100 ml spray,67448,Да
D'Orsay Etiquette Bleue EDT 50 ml spray,839,Не указано,Главная > Парфюмерия > Женская парфюмерия > D'Orsay > D'Orsay Etiquette Bleue EDT 50 ml spray,67449,Да
