name,price,min_delivery_time,category,sku,is_avalilable
Ricci Ricci НАБОР (2) EDP50+B/L100,1375,Не указано,Главная > Парфюмерия > Парфюмерные наборы > Для женщин > Nina Ricci > Ricci Ricci НАБОР (2) EDP50+B/L100,55905,Да
N.RICCI NINA L’Elixir CHRISTMAS ` 2012 НАБОР (2) EDP50+B/L100,1279,Не указано,Главная > Парфюмерия > Парфюмерные наборы > Для женщин > Nina Ricci > N.RICCI NINA L’Elixir CHRISTMAS ` 2012 НАБОР (2) EDP50+B/L100,70443,Да
