name,price,min_delivery_time,category,sku,is_avalilable
Silver Mountain Water TESTER EDT 120 ml spray,4123,Не указано,Главная > Парфюмерия > Нишевая парфюмерия > Для мужчин > Creed > Silver Mountain Water TESTER EDT 120 ml spray,56039,Да
Silver Mountain Water EDT 120 ml spray,3407,Не указано,Главная > Парфюмерия > Нишевая парфюмерия > Для мужчин > Creed > Silver Mountain Water EDT 120 ml spray,56036,Да
Silver Mountain Water EDT 75 ml spray,2559,Не указано,Главная > Парфюмерия > Нишевая парфюмерия > Для мужчин > Creed > Silver Mountain Water EDT 75 ml spray,67397,Да
Silver Mountain Water TESTER EDT 75 ml spray,2303,Не указано,Главная > Парфюмерия > Нишевая парфюмерия > Для мужчин > Creed > Silver Mountain Water TESTER EDT 75 ml spray,56040,Да
Silver Mountain Water EDT 30 ml spray,1507,Не указано,Главная > Парфюмерия > Нишевая парфюмерия > Для мужчин > Creed > Silver Mountain Water EDT 30 ml spray,56038,Да
"Silver Mountain Water EDT vial 2,5 ml",121,Не указано,"Главная > Парфюмерия > Нишевая парфюмерия > Для мужчин > Creed > Silver Mountain Water EDT vial 2,5 ml",56041,Да
Original Santal TESTER EDT 120 ml spray,2815,Не указано,Главная > Парфюмерия > Нишевая парфюмерия > Для мужчин > Creed > Original Santal TESTER EDT 120 ml spray,72575,Да
Original Santal EDT 120 ml spray,1970,Не указано,Главная > Парфюмерия > Нишевая парфюмерия > Для мужчин > Creed > Original Santal EDT 120 ml spray,56467,Да
Original Santal TESTER EDT 75 ml spray,1709,Не указано,Главная > Парфюмерия > Нишевая парфюмерия > Для мужчин > Creed > Original Santal TESTER EDT 75 ml spray,56466,Да
Original Santal EDT 75 ml spray,2009,Не указано,Главная > Парфюмерия > Нишевая парфюмерия > Для мужчин > Creed > Original Santal EDT 75 ml spray,56465,Да
Original Santal EDT 30 ml spray,1167,Не указано,Главная > Парфюмерия > Нишевая парфюмерия > Для мужчин > Creed > Original Santal EDT 30 ml spray,56463,Да
Original Santal EDT vial 2 ml,70,Не указано,Главная > Парфюмерия > Нишевая парфюмерия > Для мужчин > Creed > Original Santal EDT vial 2 ml,56468,Да
Aventus TESTER EDP 120 ml spray,5829,Не указано,Главная > Парфюмерия > Нишевая парфюмерия > Для мужчин > Creed > Aventus TESTER EDP 120 ml spray,70725,Да
Aventus EDP 120 ml spray,6510,Не указано,Главная > Парфюмерия > Нишевая парфюмерия > Для мужчин > Creed > Aventus EDP 120 ml spray,67390,Да
Aventus EDP 75 ml spray,3293,Не указано,Главная > Парфюмерия > Нишевая парфюмерия > Для мужчин > Creed > Aventus EDP 75 ml spray,63283,Да
Aventus TESTER EDP 75 ml spray,3233,Не указано,Главная > Парфюмерия > Нишевая парфюмерия > Для мужчин > Creed > Aventus TESTER EDP 75 ml spray,63280,Да
Aventus EDP 30 ml spray,1949,Не указано,Главная > Парфюмерия > Нишевая парфюмерия > Для мужчин > Creed > Aventus EDP 30 ml spray,63282,Да
Aventus EDT vial 2 ml,121,Не указано,Главная > Парфюмерия > Нишевая парфюмерия > Для мужчин > Creed > Aventus EDT vial 2 ml,77093,Да
Royal Water TESTER EDT 120 ml spray,2553,Не указано,Главная > Парфюмерия > Нишевая парфюмерия > Для мужчин > Creed > Royal Water TESTER EDT 120 ml spray,47834,Да
Royal Water EDT 120 ml spray,1653,Не указано,Главная > Парфюмерия > Нишевая парфюмерия > Для мужчин > Creed > Royal Water EDT 120 ml spray,47832,Да
Royal Water EDT 75 ml spray,1979,Не указано,Главная > Парфюмерия > Нишевая парфюмерия > Для мужчин > Creed > Royal Water EDT 75 ml spray,67396,Да
CREED HIMALAYA EDP 250 ml spray,5937,Не указано,Главная > Парфюмерия > Нишевая парфюмерия > Для мужчин > Creed > CREED HIMALAYA EDP 250 ml spray,78971,Да
Himalaya EDT 75 ml spray,2050,Не указано,Главная > Парфюмерия > Нишевая парфюмерия > Для мужчин > Creed > Himalaya EDT 75 ml spray,69675,Да
Himalaya EDT 30 ml spray,1167,Не указано,Главная > Парфюмерия > Нишевая парфюмерия > Для мужчин > Creed > Himalaya EDT 30 ml spray,56456,Да
Himalaya EDT vial 2 ml,70,Не указано,Главная > Парфюмерия > Нишевая парфюмерия > Для мужчин > Creed > Himalaya EDT vial 2 ml,56461,Да
Royal Oud EDT 75 ml spray,2605,Не указано,Главная > Парфюмерия > Нишевая парфюмерия > Для мужчин > Creed > Royal Oud EDT 75 ml spray,67395,Да
"Royal Oud vial 2,5 ml",87,Не указано,"Главная > Парфюмерия > Нишевая парфюмерия > Для мужчин > Creed > Royal Oud vial 2,5 ml",75686,Да
Original Vetiver EDT 75 ml spray,2229,Не указано,Главная > Парфюмерия > Нишевая парфюмерия > Для мужчин > Creed > Original Vetiver EDT 75 ml spray,67394,Да
Original Vetiver EDT 30 ml spray,1367,Не указано,Главная > Парфюмерия > Нишевая парфюмерия > Для мужчин > Creed > Original Vetiver EDT 30 ml spray,56470,Да
Original Vetiver EDT  vial 2 ml,87,Не указано,Главная > Парфюмерия > Нишевая парфюмерия > Для мужчин > Creed > Original Vetiver EDT  vial 2 ml,56475,Да
Virgin Island Water EDT 120 ml spray,2189,Не указано,Главная > Парфюмерия > Нишевая парфюмерия > Для мужчин > Creed > Virgin Island Water EDT 120 ml spray,61024,Да
Virgin Island Water EDT 75 ml spray,2223,Не указано,Главная > Парфюмерия > Нишевая парфюмерия > Для мужчин > Creed > Virgin Island Water EDT 75 ml spray,61028,Да
Virgin Island Water EDT 30 ml spray,1295,Не указано,Главная > Парфюмерия > Нишевая парфюмерия > Для мужчин > Creed > Virgin Island Water EDT 30 ml spray,67398,Да
Tabarome EDT 75 ml spray,2155,Не указано,Главная > Парфюмерия > Нишевая парфюмерия > Для мужчин > Creed > Tabarome EDT 75 ml spray,56254,Да
Imperial Millesime EDT 120 ml spray,2961,Не указано,Главная > Парфюмерия > Нишевая парфюмерия > Для мужчин > Creed > Imperial Millesime EDT 120 ml spray,56344,Да
Imperial Millesime EDT 75 ml spray,1943,Не указано,Главная > Парфюмерия > Нишевая парфюмерия > Для мужчин > Creed > Imperial Millesime EDT 75 ml spray,56348,Да
Imperial Millesime EDT 30 ml spray,1167,Не указано,Главная > Парфюмерия > Нишевая парфюмерия > Для мужчин > Creed > Imperial Millesime EDT 30 ml spray,56346,Да
"Imperial Millesime EDT vial 2,5 ml",105,Не указано,"Главная > Парфюмерия > Нишевая парфюмерия > Для мужчин > Creed > Imperial Millesime EDT vial 2,5 ml",56351,Да
Green Irish Tweed TESTER EDT 75 ml spray,1773,Не указано,Главная > Парфюмерия > Нишевая парфюмерия > Для мужчин > Creed > Green Irish Tweed TESTER EDT 75 ml spray,56454,Да
Green Irish Tweed EDT 75 ml spray,2050,Не указано,Главная > Парфюмерия > Нишевая парфюмерия > Для мужчин > Creed > Green Irish Tweed EDT 75 ml spray,56450,Да
Green Irish Tweed EDT 30 ml spray,1397,Не указано,Главная > Парфюмерия > Нишевая парфюмерия > Для мужчин > Creed > Green Irish Tweed EDT 30 ml spray,56448,Да
Green Irish Tweed EDT vial 2 ml,70,Не указано,Главная > Парфюмерия > Нишевая парфюмерия > Для мужчин > Creed > Green Irish Tweed EDT vial 2 ml,56455,Да
