name,price,min_delivery_time,category,sku,is_avalilable
Miss Byblos EDP 100 ml spray,1073,Не указано,Главная > Парфюмерия > Женская парфюмерия > Byblos > Miss Byblos EDP 100 ml spray,69641,Да
Miss Byblos EDP 50 ml spray,903,Не указано,Главная > Парфюмерия > Женская парфюмерия > Byblos > Miss Byblos EDP 50 ml spray,69642,Да
