name,price,min_delivery_time,category,sku,is_avalilable
Un Jardin Sur Le Nil НАБОР (3) EDT100+B/L40+S/G40,2290,Не указано,Главная > Парфюмерия > Парфюмерные наборы > Для женщин > Hermes > Un Jardin Sur Le Nil НАБОР (3) EDT100+B/L40+S/G40,49395,Да
"Jour D’Herme НАБОР (3) EDP85+EDP7,5+B/L30",3143,Не указано,"Главная > Парфюмерия > Парфюмерные наборы > Для женщин > Hermes > Jour D’Herme НАБОР (3) EDP85+EDP7,5+B/L30",78357,Да
