name,price,min_delivery_time,category,sku,is_avalilable
Gian Marco Venturi GMV Essence EDT 100 ml spray,535,Не указано,Главная > Парфюмерия > Мужская парфюмерия > Gian Marco Venturi > Gian Marco Venturi GMV Essence EDT 100 ml spray,64110,Да
Gian Marco Venturi GMV Essence EDT 50 ml spray,419,Не указано,Главная > Парфюмерия > Мужская парфюмерия > Gian Marco Venturi > Gian Marco Venturi GMV Essence EDT 50 ml spray,64113,Да
Gian Marco Venturi GMV Essence EDT 30 ml spray,280,Не указано,Главная > Парфюмерия > Мужская парфюмерия > Gian Marco Venturi > Gian Marco Venturi GMV Essence EDT 30 ml spray,64112,Да
Gian Marco Venturi GMV Essence EDT mini 5 ml,139,Не указано,Главная > Парфюмерия > Мужская парфюмерия > Gian Marco Venturi > Gian Marco Venturi GMV Essence EDT mini 5 ml,71564,Да
GMV Uomo Energy EDT 30 ml spray,179,Не указано,Главная > Парфюмерия > Мужская парфюмерия > Gian Marco Venturi > GMV Uomo Energy EDT 30 ml spray,62384,Да
GMV Homme Sport EDT 100 ml spray,541,Не указано,Главная > Gian Marco Venturi > GMV Homme Sport EDT 100 ml spray,77722,Да
GIAN MARCO VENTURI HOMME SPORT EDT 30 ml spray,209,Не указано,Главная > Gian Marco Venturi > GIAN MARCO VENTURI HOMME SPORT EDT 30 ml spray,79062,Да
