name,price,min_delivery_time,category,sku,is_avalilable
Bois D'Iris EDT 90 ml spray,1625,Не указано,Главная > Парфюмерия > Женская парфюмерия > The Different Company > Bois D'Iris EDT 90 ml spray,64182,Да
Bois D'Iris EDT 50 ml spray,993,Не указано,Главная > Парфюмерия > Женская парфюмерия > The Different Company > Bois D'Iris EDT 50 ml spray,64184,Да
The Different Company UN PARFUM d'AILLEURS & FLEURS Parfum concentree TESTER EDP 90 ml spray,1210,Не указано,Главная > Парфюмерия > Женская парфюмерия > The Different Company > The Different Company UN PARFUM d'AILLEURS & FLEURS Parfum concentree TESTER EDP 90 ml spray,74166,Да
The Different Company UN PARFUM d'AILLEURS & FLEURS Parfum concentree EDP 90 ml spray,1625,Не указано,Главная > Парфюмерия > Женская парфюмерия > The Different Company > The Different Company UN PARFUM d'AILLEURS & FLEURS Parfum concentree EDP 90 ml spray,74165,Да
The Different Company Un Parfum d'Ailleurs et Fleurs Parfum concentre 50 ml spray refill,993,Не указано,Главная > Парфюмерия > Женская парфюмерия > The Different Company > The Different Company Un Parfum d'Ailleurs et Fleurs Parfum concentre 50 ml spray refill,64217,Да
The Different Company Un Parfum d'Ailleurs et Fleurs Parfum concentre 50 ml spray,993,Не указано,Главная > Парфюмерия > Женская парфюмерия > The Different Company > The Different Company Un Parfum d'Ailleurs et Fleurs Parfum concentre 50 ml spray,64214,Да
The Different Company ROSE POIVREE (Leather) EDT 250 ml spray,2903,Не указано,Главная > Парфюмерия > Женская парфюмерия > The Different Company > The Different Company ROSE POIVREE (Leather) EDT 250 ml spray,74163,Да
The Different Company Rose Poivree EDT 90 ml spray,1625,Не указано,Главная > Парфюмерия > Женская парфюмерия > The Different Company > The Different Company Rose Poivree EDT 90 ml spray,64253,Да
The Different Company Rose Poivree EDT 50 ml spray,993,Не указано,Главная > Парфюмерия > Женская парфюмерия > The Different Company > The Different Company Rose Poivree EDT 50 ml spray,64251,Да
The Different Company Jasmin de Nuit EDT 250 ml spray в кожаном футляре,2903,Не указано,Главная > Парфюмерия > Женская парфюмерия > The Different Company > The Different Company Jasmin de Nuit EDT 250 ml spray в кожаном футляре,64187,Да
The Different Company Jasmin de Nuit EDT 90 ml spray,1625,Не указано,Главная > Парфюмерия > Женская парфюмерия > The Different Company > The Different Company Jasmin de Nuit EDT 90 ml spray,64189,Да
