name,price,min_delivery_time,category,sku,is_avalilable
CK One TESTER EDT 200 ml spray,679,Не указано,Главная > Парфюмерия > Женская парфюмерия > Calvin Klein > CK One TESTER EDT 200 ml spray,58549,Да
CK One EDT 100 ml spray,631,Не указано,Главная > Парфюмерия > Женская парфюмерия > Calvin Klein > CK One EDT 100 ml spray,58547,Да
CK One EDT 50 ml spray,501,Не указано,Главная > Парфюмерия > Женская парфюмерия > Calvin Klein > CK One EDT 50 ml spray,73556,Да
Sheer Beauty Essence EDT 100 ml spray,727,Не указано,Главная > Парфюмерия > Женская парфюмерия > Calvin Klein > Sheer Beauty Essence EDT 100 ml spray,76751,Да
Sheer Beauty Essence EDT 50 ml spray,519,Не указано,Главная > Парфюмерия > Женская парфюмерия > Calvin Klein > Sheer Beauty Essence EDT 50 ml spray,76754,Да
Sheer Beauty Essence EDT 30 ml spray,415,Не указано,Главная > Парфюмерия > Женская парфюмерия > Calvin Klein > Sheer Beauty Essence EDT 30 ml spray,76753,Да
Endless Euphoria EDP 40 ml spray,653,Не указано,Главная > Парфюмерия > Женская парфюмерия > Calvin Klein > Endless Euphoria EDP 40 ml spray,77559,Да
CK One Shock for Her EDT 200 ml spray,790,Не указано,Главная > Парфюмерия > Женская парфюмерия > Calvin Klein > CK One Shock for Her EDT 200 ml spray,77567,Да
CK One Shock for Her TESTER EDT 200 ml spray,673,Не указано,Главная > Парфюмерия > Женская парфюмерия > Calvin Klein > CK One Shock for Her TESTER EDT 200 ml spray,65121,Да
CK One Shock for Her EDT 50 ml spray,493,Не указано,Главная > Парфюмерия > Женская парфюмерия > Calvin Klein > CK One Shock for Her EDT 50 ml spray,65119,Да
Sheer Beauty EDT 100 ml spray,815,Не указано,Главная > Парфюмерия > Женская парфюмерия > Calvin Klein > Sheer Beauty EDT 100 ml spray,66132,Да
Sheer Beauty EDT 50 ml spray,629,Не указано,Главная > Парфюмерия > Женская парфюмерия > Calvin Klein > Sheer Beauty EDT 50 ml spray,68830,Да
Sheer Beauty EDT 30 ml spray,520,Не указано,Главная > Парфюмерия > Женская парфюмерия > Calvin Klein > Sheer Beauty EDT 30 ml spray,69584,Да
Beauty TESTER EDP 100 ml spray,727,Не указано,Главная > Парфюмерия > Женская парфюмерия > Calvin Klein > Beauty TESTER EDP 100 ml spray,59681,Да
Euphoria Luminous Lustre EDP 50 ml spray limited edition,929,Не указано,Главная > Парфюмерия > Женская парфюмерия > Calvin Klein > Euphoria Luminous Lustre EDP 50 ml spray limited edition,51563,Да
CK IN2U For Her EDT 150 ml spray,755,Не указано,Главная > Парфюмерия > Женская парфюмерия > Calvin Klein > CK IN2U For Her EDT 150 ml spray,51798,Да
CK IN2U For Her TESTER EDT 100 ml spray,555,Не указано,Главная > Парфюмерия > Женская парфюмерия > Calvin Klein > CK IN2U For Her TESTER EDT 100 ml spray,51795,Да
CK IN2U For Her EDT 100 ml spray,597,Не указано,Главная > Парфюмерия > Женская парфюмерия > Calvin Klein > CK IN2U For Her EDT 100 ml spray,51790,Да
CK IN2U For Her EDT 50 ml spray,487,Не указано,Главная > Парфюмерия > Женская парфюмерия > Calvin Klein > CK IN2U For Her EDT 50 ml spray,51793,Да
Eternity Moment EDP 100 ml spray,885,Не указано,Главная > Парфюмерия > Женская парфюмерия > Calvin Klein > Eternity Moment EDP 100 ml spray,48367,Да
Eternity Moment EDP 50 ml spray,819,Не указано,Главная > Парфюмерия > Женская парфюмерия > Calvin Klein > Eternity Moment EDP 50 ml spray,48364,Да
Euphoria Blossom EDT 30 ml spray,529,Не указано,Главная > Парфюмерия > Женская парфюмерия > Calvin Klein > Euphoria Blossom EDT 30 ml spray,48391,Да
Truth EDP 100 ml spray,825,Не указано,Главная > Парфюмерия > Женская парфюмерия > Calvin Klein > Truth EDP 100 ml spray,48407,Да
Truth EDP 50 ml spray,639,Не указано,Главная > Парфюмерия > Женская парфюмерия > Calvin Klein > Truth EDP 50 ml spray,48405,Да
Euphoria TESTER EDP 100 ml spray,915,Не указано,Главная > Парфюмерия > Женская парфюмерия > Calvin Klein > Euphoria TESTER EDP 100 ml spray,48375,Да
Euphoria EDP 100 ml spray,1117,Не указано,Главная > Парфюмерия > Женская парфюмерия > Calvin Klein > Euphoria EDP 100 ml spray,48372,Да
Euphoria EDP 50 ml spray,790,Не указано,Главная > Парфюмерия > Женская парфюмерия > Calvin Klein > Euphoria EDP 50 ml spray,48370,Да
Euphoria EDP 30 ml spray,581,Не указано,Главная > Парфюмерия > Женская парфюмерия > Calvin Klein > Euphoria EDP 30 ml spray,48373,Да
One Red Edition for Her EDT 100 ml spray,709,Не указано,Главная > Парфюмерия > Женская парфюмерия > Calvin Klein > One Red Edition for Her EDT 100 ml spray,77562,Да
Eternity Aqua for Women EDP 100 ml spray,1247,Не указано,Главная > Парфюмерия > Женская парфюмерия > Calvin Klein > Eternity Aqua for Women EDP 100 ml spray,69647,Да
Eternity Aqua for Women EDP 50 ml spray,533,Не указано,Главная > Парфюмерия > Женская парфюмерия > Calvin Klein > Eternity Aqua for Women EDP 50 ml spray,69648,Да
Eternity Aqua for Women EDP 30 ml spray,425,Не указано,Главная > Парфюмерия > Женская парфюмерия > Calvin Klein > Eternity Aqua for Women EDP 30 ml spray,72273,Да
Euphoria Forbidden TESTER EDP 100ml spray,793,Не указано,Главная > Парфюмерия > Женская парфюмерия > Calvin Klein > Euphoria Forbidden TESTER EDP 100ml spray,64469,Да
Euphoria Forbidden EDP 50 ml spray,715,Не указано,Главная > Парфюмерия > Женская парфюмерия > Calvin Klein > Euphoria Forbidden EDP 50 ml spray,64472,Да
Euphoria Eau De Toilette TESTER EDT 100 ml spray,897,Не указано,Главная > Парфюмерия > Женская парфюмерия > Calvin Klein > Euphoria Eau De Toilette TESTER EDT 100 ml spray,59028,Да
Downtown TESTER EDP 90 ml spray,639,Не указано,Главная > Парфюмерия > Женская парфюмерия > Calvin Klein > Downtown TESTER EDP 90 ml spray,76276,Да
Downtown EDP 50 ml spray,519,Не указано,Главная > Парфюмерия > Женская парфюмерия > Calvin Klein > Downtown EDP 50 ml spray,77552,Да
Downtown EDP 30 ml spray,415,Не указано,Главная > Парфюмерия > Женская парфюмерия > Calvin Klein > Downtown EDP 30 ml spray,76275,Да
