name,price,min_delivery_time,category,sku,is_avalilable
Unforgivable Woman EDT 75 ml spray,1151,Не указано,Главная > Парфюмерия > Женская парфюмерия > Sean John > Unforgivable Woman EDT 75 ml spray,60911,Да
Unforgivable Woman EDT 50 ml spray,897,Не указано,Главная > Парфюмерия > Женская парфюмерия > Sean John > Unforgivable Woman EDT 50 ml spray,60910,Да
Unforgivable Woman EDT 30 ml spray,733,Не указано,Главная > Парфюмерия > Женская парфюмерия > Sean John > Unforgivable Woman EDT 30 ml spray,60908,Да
