name,price,min_delivery_time,category,sku,is_avalilable
Victorian Posy EDT 100 ml spray,2031,Не указано,Главная > Парфюмерия > Нишевая парфюмерия > Для женщин > Penhaligon's > Victorian Posy EDT 100 ml spray,72436,Да
Amaranthine EDP 100 ml spray,1359,Не указано,Главная > Парфюмерия > Нишевая парфюмерия > Для женщин > Penhaligon's > Amaranthine EDP 100 ml spray,64222,Да
Amaranthine EDP 50 ml spray,1069,Не указано,Главная > Парфюмерия > Нишевая парфюмерия > Для женщин > Penhaligon's > Amaranthine EDP 50 ml spray,64224,Да
Penhaligon's Ellenisia EDP 100 ml spray,1620,Не указано,Главная > Парфюмерия > Нишевая парфюмерия > Для женщин > Penhaligon's > Penhaligon's Ellenisia EDP 100 ml spray,59589,Да
Penhaligon's Ellenisia EDP 50 ml spray,1361,Не указано,Главная > Парфюмерия > Нишевая парфюмерия > Для женщин > Penhaligon's > Penhaligon's Ellenisia EDP 50 ml spray,59590,Да
Penhaligon's Artemisia EDP 100 spray,1831,Не указано,Главная > Парфюмерия > Нишевая парфюмерия > Для женщин > Penhaligon's > Penhaligon's Artemisia EDP 100 spray,59593,Да
"Penhaligon's Malabah  EDP 100 ml spray
",1830,Не указано,"Главная > Парфюмерия > Нишевая парфюмерия > Для женщин > Penhaligon's > Penhaligon's Malabah  EDP 100 ml spray
",59632,Да
"Penhaligon's Malabah  EDP 50 ml spray
",1440,Не указано,"Главная > Парфюмерия > Нишевая парфюмерия > Для женщин > Penhaligon's > Penhaligon's Malabah  EDP 50 ml spray
",59633,Да
Penhaligon's Anthology Night Scented Stock EDT 100 ml spray,1183,Не указано,Главная > Парфюмерия > Нишевая парфюмерия > Для женщин > Penhaligon's > Penhaligon's Anthology Night Scented Stock EDT 100 ml spray,63473,Да
Peoneve EDP 100 ml spray,1999,Не указано,Главная > Парфюмерия > Нишевая парфюмерия > Для женщин > Penhaligon's > Peoneve EDP 100 ml spray,74103,Да
Peoneve EDP 50 ml spray,1635,Не указано,Главная > Парфюмерия > Нишевая парфюмерия > Для женщин > Penhaligon's > Peoneve EDP 50 ml spray,72738,Да
"PENHALIGON'S PEONEVE EDP vial 1,5 ml",70,Не указано,"Главная > Парфюмерия > Нишевая парфюмерия > Для женщин > Penhaligon's > PENHALIGON'S PEONEVE EDP vial 1,5 ml",80315,Да
Penhaligon's Anthology Eau de Verveine EDT 100 ml spray,1279,Не указано,Главная > Парфюмерия > Нишевая парфюмерия > Для женщин > Penhaligon's > Penhaligon's Anthology Eau de Verveine EDT 100 ml spray,63475,Да
LP No. 9 EDT 100 ml spray,1595,Не указано,Главная > Парфюмерия > Нишевая парфюмерия > Для женщин > Penhaligon's > LP No. 9 EDT 100 ml spray,67918,Да
