name,price,min_delivery_time,category,sku,is_avalilable
O-Zone Man EDT 75 ml spray,523,Не указано,Главная > Парфюмерия > Мужская парфюмерия > Sergio Tacchini > O-Zone Man EDT 75 ml spray,51169,Да
O-Zone Man TESTER EDT 50 ml spray,320,Не указано,Главная > Парфюмерия > Мужская парфюмерия > Sergio Tacchini > O-Zone Man TESTER EDT 50 ml spray,51175,Да
O-Zone Man EDT 50 ml spray,387,Не указано,Главная > Парфюмерия > Мужская парфюмерия > Sergio Tacchini > O-Zone Man EDT 50 ml spray,51173,Да
O-Zone Man EDT 30 ml spray,253,Не указано,Главная > Парфюмерия > Мужская парфюмерия > Sergio Tacchini > O-Zone Man EDT 30 ml spray,51174,Да
O-Zone Man mini 7 ml,53,Не указано,Главная > Парфюмерия > Мужская парфюмерия > Sergio Tacchini > O-Zone Man mini 7 ml,51172,Да
Ozone Blue Spirit TESTER EDT 30 ml spray,305,Не указано,Главная > Парфюмерия > Мужская парфюмерия > Sergio Tacchini > Ozone Blue Spirit TESTER EDT 30 ml spray,74149,Да
Stile EDT 100 ml spray,553,Не указано,Главная > Парфюмерия > Мужская парфюмерия > Sergio Tacchini > Stile EDT 100 ml spray,57166,Да
Club TESTER EDT 100 ml spray,399,Не указано,Главная > Парфюмерия > Мужская парфюмерия > Sergio Tacchini > Club TESTER EDT 100 ml spray,67985,Да
Club EDT 100 ml spray,449,Не указано,Главная > Парфюмерия > Мужская парфюмерия > Sergio Tacchini > Club EDT 100 ml spray,67982,Да
