name,price,min_delivery_time,category,sku,is_avalilable
Higher Energy EDT 100 ml spray,1801,Не указано,Главная > Парфюмерия > Мужская парфюмерия > Christian Dior > Higher Energy EDT 100 ml spray,50547,Да
Higher EDT 100 ml spray,1701,Не указано,Главная > Парфюмерия > Мужская парфюмерия > Christian Dior > Higher EDT 100 ml spray,50538,Да
Higher Energy TESTER EDT 100 ml spray,1443,Не указано,Главная > Парфюмерия > Мужская парфюмерия > Christian Dior > Higher Energy TESTER EDT 100 ml spray,47940,Да
Higher Energy EDT 50 ml spray,1345,Не указано,Главная > Парфюмерия > Мужская парфюмерия > Christian Dior > Higher Energy EDT 50 ml spray,50544,Да
Dior Escale a Parati TESTER EDT 125 ml spray,1573,Не указано,Главная > Парфюмерия > Мужская парфюмерия > Christian Dior > Dior Escale a Parati TESTER EDT 125 ml spray,67331,Да
Dior Homme TESTER EDT 100 ml spray,1533,Не указано,Главная > Парфюмерия > Мужская парфюмерия > Christian Dior > Dior Homme TESTER EDT 100 ml spray,50490,Да
Dior Homme EDT 100 ml spray,1801,Не указано,Главная > Парфюмерия > Мужская парфюмерия > Christian Dior > Dior Homme EDT 100 ml spray,50486,Да
Dior Homme EDT 50 ml spray,1345,Не указано,Главная > Парфюмерия > Мужская парфюмерия > Christian Dior > Dior Homme EDT 50 ml spray,50484,Да
"Dior Homme EDT vial 1,2 ml spray",47,Не указано,"Главная > Парфюмерия > Мужская парфюмерия > Christian Dior > Dior Homme EDT vial 1,2 ml spray",50498,Да
Dior Homme Sport EDT 100 ml spray,1761,Не указано,Главная > Парфюмерия > Мужская парфюмерия > Christian Dior > Dior Homme Sport EDT 100 ml spray,53279,Да
Dior Homme Sport EDT 50 ml spray,1343,Не указано,Главная > Парфюмерия > Мужская парфюмерия > Christian Dior > Dior Homme Sport EDT 50 ml spray,53270,Да
Dior Homme Intense EDP 100 ml spray,1965,Не указано,Главная > Парфюмерия > Мужская парфюмерия > Christian Dior > Dior Homme Intense EDP 100 ml spray,53700,Да
Dior Homme Intense EDP 50 ml spray,1359,Не указано,Главная > Парфюмерия > Мужская парфюмерия > Christian Dior > Dior Homme Intense EDP 50 ml spray,53698,Да
DIOR DUNE POUR HOMME EDT 100 ml spray,1831,Не указано,Главная > Парфюмерия > Мужская парфюмерия > Christian Dior > DIOR DUNE POUR HOMME EDT 100 ml spray,67328,Да
Fahrenheit EDT 100 ml spray,1709,Не указано,Главная > Парфюмерия > Мужская парфюмерия > Christian Dior > Fahrenheit EDT 100 ml spray,50510,Да
Fahrenheit TESTER EDT 100 ml spray,1585,Не указано,Главная > Парфюмерия > Мужская парфюмерия > Christian Dior > Fahrenheit TESTER EDT 100 ml spray,47935,Да
Fahrenheit EDT 50 ml spray,1325,Не указано,Главная > Парфюмерия > Мужская парфюмерия > Christian Dior > Fahrenheit EDT 50 ml spray,50511,Да
