name,price,min_delivery_time,category,sku,is_avalilable
Flowerbomb TESTER EDP 100 ml spray,2417,Не указано,Главная > Парфюмерия > Женская парфюмерия > Viktor & Rolf > Flowerbomb TESTER EDP 100 ml spray,50134,Да
Flowerbomb EDP 30 ml spray,1261,Не указано,Главная > Парфюмерия > Женская парфюмерия > Viktor & Rolf > Flowerbomb EDP 30 ml spray,50132,Да
Flowerbomb EDP 20 ml spray (Petite Flowerbomb),1173,Не указано,Главная > Парфюмерия > Женская парфюмерия > Viktor & Rolf > Flowerbomb EDP 20 ml spray (Petite Flowerbomb),50133,Да
