name,price,min_delivery_time,category,sku,is_avalilable
Revolutionary EDT 100 ml spray,1033,Не указано,Главная > Парфюмерия > Мужская парфюмерия > Aigner Etienne > Revolutionary EDT 100 ml spray,66212,Да
Aigner Black for Men EDT 125 ml spray,829,Не указано,Главная > Парфюмерия > Мужская парфюмерия > Aigner Etienne > Aigner Black for Men EDT 125 ml spray,51314,Да
Aigner Blue Emotion Pour Homme EDT 100 ml,1195,Не указано,Главная > Парфюмерия > Мужская парфюмерия > Aigner Etienne > Aigner Blue Emotion Pour Homme EDT 100 ml,70797,Да
Aigner Man 2 EDT 50 ml spray,533,Не указано,Главная > Парфюмерия > Мужская парфюмерия > Aigner Etienne > Aigner Man 2 EDT 50 ml spray,59251,Да
