name,price,min_delivery_time,category,sku,is_avalilable
John Richmond For Men TESTER EDT 100 ml spray,880,Не указано,Главная > Парфюмерия > Мужская парфюмерия > John Richmond > John Richmond For Men TESTER EDT 100 ml spray,58668,Да
John Richmond For Men EDT 100 ml spray,1087,Не указано,Главная > Парфюмерия > Мужская парфюмерия > John Richmond > John Richmond For Men EDT 100 ml spray,58665,Да
John Richmond For Men EDT 50 ml spray,765,Не указано,Главная > Парфюмерия > Мужская парфюмерия > John Richmond > John Richmond For Men EDT 50 ml spray,58662,Да
John Richmond For Men EDT 30 ml spray,533,Не указано,Главная > Парфюмерия > Мужская парфюмерия > John Richmond > John Richmond For Men EDT 30 ml spray,58664,Да
"John Richmond For Men EDT mini 4,5 ml",77,Не указано,"Главная > Парфюмерия > Мужская парфюмерия > John Richmond > John Richmond For Men EDT mini 4,5 ml",58666,Да
