name,price,min_delivery_time,category,sku,is_avalilable
Chinatown EDP 100 ml spray,4805,Не указано,Главная > Парфюмерия > Нишевая парфюмерия > Для женщин > Bond № 9 > Chinatown EDP 100 ml spray,67229,Да
Fashion Avenue EDP 50 ml spray,1087,Не указано,Главная > Парфюмерия > Нишевая парфюмерия > Для женщин > Bond № 9 > Fashion Avenue EDP 50 ml spray,67235,Да
Park Avenue TESTER EDP 100 ml spray,1239,Не указано,Главная > Парфюмерия > Нишевая парфюмерия > Для женщин > Bond № 9 > Park Avenue TESTER EDP 100 ml spray,73743,Да
Park Avenue EDP 100 ml spray,1477,Не указано,Главная > Парфюмерия > Нишевая парфюмерия > Для женщин > Bond № 9 > Park Avenue EDP 100 ml spray,67241,Да
Park Avenue EDP 50 ml spray,1087,Не указано,Главная > Парфюмерия > Нишевая парфюмерия > Для женщин > Bond № 9 > Park Avenue EDP 50 ml spray,67242,Да
Madison Soiree EDP 50 ml spray,1087,Не указано,Главная > Парфюмерия > Нишевая парфюмерия > Для женщин > Bond № 9 > Madison Soiree EDP 50 ml spray,68815,Да
Andy Warhol Union Square EDP 100 ml spray,5089,Не указано,Главная > Парфюмерия > Нишевая парфюмерия > Для женщин > Bond № 9 > Andy Warhol Union Square EDP 100 ml spray,67223,Да
The Scent Of Peace EDP 100 ml spray,5657,Не указано,Главная > Парфюмерия > Нишевая парфюмерия > Для женщин > Bond № 9 > The Scent Of Peace EDP 100 ml spray,75780,Да
BOND № 9 Chelsea Flowers TESTER EDP 100 ml spray,2933,Не указано,Главная > Парфюмерия > Нишевая парфюмерия > Для женщин > Bond № 9 > BOND № 9 Chelsea Flowers TESTER EDP 100 ml spray,73735,Да
Chelsea Flowers EDP 100 ml spray,1477,Не указано,Главная > Парфюмерия > Нишевая парфюмерия > Для женщин > Bond № 9 > Chelsea Flowers EDP 100 ml spray,67227,Да
Sag Harbor EDP 100 ml spray,5260,Не указано,Главная > Парфюмерия > Нишевая парфюмерия > Для женщин > Bond № 9 > Sag Harbor EDP 100 ml spray,75778,Да
