name,price,min_delivery_time,category,sku,is_avalilable
Dupont 58 Avenue Montaigne Pour Homme TESTER EDT 100 ml spray,549,Не указано,Главная > Парфюмерия > Мужская парфюмерия > Dupont S.T. > Dupont 58 Avenue Montaigne Pour Homme TESTER EDT 100 ml spray,67471,Да
Dupont 58 Avenue Montaigne Pour Homme EDT 100 ml spray,575,Не указано,Главная > Парфюмерия > Мужская парфюмерия > Dupont S.T. > Dupont 58 Avenue Montaigne Pour Homme EDT 100 ml spray,67462,Да
Dupont 58 Avenue Montaigne Pour Homme EDT 50 ml spray,455,Не указано,Главная > Парфюмерия > Мужская парфюмерия > Dupont S.T. > Dupont 58 Avenue Montaigne Pour Homme EDT 50 ml spray,67465,Да
Dupont 58 Avenue Montaigne Pour Homme EDT 30 ml spray,349,Не указано,Главная > Парфюмерия > Мужская парфюмерия > Dupont S.T. > Dupont 58 Avenue Montaigne Pour Homme EDT 30 ml spray,67463,Да
So Dupont Pour Homme TESTER EDT 100 ml spray,587,Не указано,Главная > Парфюмерия > Мужская парфюмерия > Dupont S.T. > So Dupont Pour Homme TESTER EDT 100 ml spray,78573,Да
So Dupont Pour Homme EDT 100 ml spray,605,Не указано,Главная > Парфюмерия > Мужская парфюмерия > Dupont S.T. > So Dupont Pour Homme EDT 100 ml spray,78315,Да
So Dupont Pour Homme EDT 50 ml spray,469,Не указано,Главная > Парфюмерия > Мужская парфюмерия > Dupont S.T. > So Dupont Pour Homme EDT 50 ml spray,78572,Да
Essence Pure Pour Homme EDT 100 ml spray,520,Не указано,Главная > Парфюмерия > Мужская парфюмерия > Dupont S.T. > Essence Pure Pour Homme EDT 100 ml spray,50683,Да
Essence Pure Pour Homme TESTER EDT 100 ml spray,487,Не указано,Главная > Парфюмерия > Мужская парфюмерия > Dupont S.T. > Essence Pure Pour Homme TESTER EDT 100 ml spray,47767,Да
Essence Pure Pour Homme EDT 50 ml spray,329,Не указано,Главная > Парфюмерия > Мужская парфюмерия > Dupont S.T. > Essence Pure Pour Homme EDT 50 ml spray,50681,Да
Essence Pure Pour Homme EDT 30 ml spray,285,Не указано,Главная > Парфюмерия > Мужская парфюмерия > Dupont S.T. > Essence Pure Pour Homme EDT 30 ml spray,50680,Да
Dupont Pour Homme TESTER EDT 100 ml spray,467,Не указано,Главная > Парфюмерия > Мужская парфюмерия > Dupont S.T. > Dupont Pour Homme TESTER EDT 100 ml spray,50702,Да
Dupont Pour Homme EDT 100 ml spray,539,Не указано,Главная > Парфюмерия > Мужская парфюмерия > Dupont S.T. > Dupont Pour Homme EDT 100 ml spray,50700,Да
Dupont Pour Homme EDT 50 ml spray,359,Не указано,Главная > Парфюмерия > Мужская парфюмерия > Dupont S.T. > Dupont Pour Homme EDT 50 ml spray,50697,Да
Dupont Pour Homme EDT 30 ml spray,279,Не указано,Главная > Парфюмерия > Мужская парфюмерия > Dupont S.T. > Dupont Pour Homme EDT 30 ml spray,50699,Да
Passenger Cruise Pour Homme EDT 50 ml spray,447,Не указано,Главная > Парфюмерия > Мужская парфюмерия > Dupont S.T. > Passenger Cruise Pour Homme EDT 50 ml spray,63015,Да
Passenger Cruise Pour Homme EDT 30 ml spray,333,Не указано,Главная > Парфюмерия > Мужская парфюмерия > Dupont S.T. > Passenger Cruise Pour Homme EDT 30 ml spray,63014,Да
Passenger Pour Homme TESTER EDT 100 ml spray,591,Не указано,Главная > Парфюмерия > Мужская парфюмерия > Dupont S.T. > Passenger Pour Homme TESTER EDT 100 ml spray,53864,Да
Passenger Pour Homme EDT 100 ml spray,597,Не указано,Главная > Парфюмерия > Мужская парфюмерия > Dupont S.T. > Passenger Pour Homme EDT 100 ml spray,53861,Да
S.T. Dupont Noir EDT 100 ml spray,673,Не указано,Главная > Парфюмерия > Мужская парфюмерия > Dupont S.T. > S.T. Dupont Noir EDT 100 ml spray,50692,Да
Dupont Paris Saint-Germain TESTER EDT 100 ml spray,565,Не указано,Главная > Парфюмерия > Мужская парфюмерия > Dupont S.T. > Dupont Paris Saint-Germain TESTER EDT 100 ml spray,78313,Да
Dupont Paris Saint-Germain EDT 100 ml spray,643,Не указано,Главная > Парфюмерия > Мужская парфюмерия > Dupont S.T. > Dupont Paris Saint-Germain EDT 100 ml spray,78310,Да
Dupont Paris Saint-Germain EDT 50 ml spray,421,Не указано,Главная > Парфюмерия > Мужская парфюмерия > Dupont S.T. > Dupont Paris Saint-Germain EDT 50 ml spray,78312,Да
