name,price,min_delivery_time,category,sku,is_avalilable
Sunrise Franck Olivier Men EDT 75 ml spray,379,Не указано,Главная > Парфюмерия > Мужская парфюмерия > Franck Olivier > Sunrise Franck Olivier Men EDT 75 ml spray,59690,Да
Sunrise Franck Olivier Men EDT 50 ml spray,299,Не указано,Главная > Парфюмерия > Мужская парфюмерия > Franck Olivier > Sunrise Franck Olivier Men EDT 50 ml spray,59686,Да
FRANCK OLIVIER SUN RISE MAN EDT 50 ml spray,309,Не указано,Главная > Парфюмерия > Мужская парфюмерия > Franck Olivier > FRANCK OLIVIER SUN RISE MAN EDT 50 ml spray,71556,Да
FRANCK OLIVIER BAMBOO MEN EDT 75 ml spray,460,Не указано,Главная > Парфюмерия > Мужская парфюмерия > Franck Olivier > FRANCK OLIVIER BAMBOO MEN EDT 75 ml spray,67537,Да
FRANCK OLIVIER BLUE TOUCH TESTER EDT 100 ml spray,387,Не указано,Главная > Парфюмерия > Мужская парфюмерия > Franck Olivier > FRANCK OLIVIER BLUE TOUCH TESTER EDT 100 ml spray,76647,Да
FRANCK OLIVIER BLUE TOUCH EDT 100 ml spray,403,Не указано,Главная > Парфюмерия > Мужская парфюмерия > Franck Olivier > FRANCK OLIVIER BLUE TOUCH EDT 100 ml spray,66339,Да
FRANCK OLIVIER BLUE TOUCH EDT 50 ml spray,355,Не указано,Главная > Парфюмерия > Мужская парфюмерия > Franck Olivier > FRANCK OLIVIER BLUE TOUCH EDT 50 ml spray,67542,Да
FRANCK OLIVIER JAVA SUN WHITE MEN EDT 75 ml spray,493,Не указано,Главная > Парфюмерия > Мужская парфюмерия > Franck Olivier > FRANCK OLIVIER JAVA SUN WHITE MEN EDT 75 ml spray,66343,Да
FRANCK OLIVIER JAVA SUN WHITE MEN EDT 50 ml spray,417,Не указано,Главная > Парфюмерия > Мужская парфюмерия > Franck Olivier > FRANCK OLIVIER JAVA SUN WHITE MEN EDT 50 ml spray,66342,Да
FRANCK OLIVIER IN BLACK MEN TESTER EDT 75 ml spray,373,Не указано,Главная > Парфюмерия > Мужская парфюмерия > Franck Olivier > FRANCK OLIVIER IN BLACK MEN TESTER EDT 75 ml spray,71553,Да
FRANCK OLIVIER IN BLACK MEN EDT 75 ml spray,379,Не указано,Главная > Парфюмерия > Мужская парфюмерия > Franck Olivier > FRANCK OLIVIER IN BLACK MEN EDT 75 ml spray,68872,Да
FRANCK OLIVIER IN BLACK MEN EDT 50 ml spray,313,Не указано,Главная > Парфюмерия > Мужская парфюмерия > Franck Olivier > FRANCK OLIVIER IN BLACK MEN EDT 50 ml spray,68871,Да
Franck Olivier Black Touch EDT 100 ml spray,403,Не указано,Главная > Парфюмерия > Мужская парфюмерия > Franck Olivier > Franck Olivier Black Touch EDT 100 ml spray,59228,Да
Franck Olivier Black Touch EDT 50 ml spray,389,Не указано,Главная > Парфюмерия > Мужская парфюмерия > Franck Olivier > Franck Olivier Black Touch EDT 50 ml spray,59230,Да
