name,price,min_delivery_time,category,sku,is_avalilable
Cosmo Rubino Cosmetics EDP 75 ml spray,5925,Не указано,Главная > Парфюмерия > Нишевая парфюмерия > Для женщин > Rubino Cosmetics > Cosmo Rubino Cosmetics EDP 75 ml spray,66210,Да
RUBINO COSMETICS SHOCK EDP 75 ml spray,7033,Не указано,Главная > Парфюмерия > Нишевая парфюмерия > Для женщин > Rubino Cosmetics > RUBINO COSMETICS SHOCK EDP 75 ml spray,66456,Да
RUBINO COSMETICS PREDATEUR OU PROIE EDP 50 ml spray,3891,Не указано,Главная > Парфюмерия > Нишевая парфюмерия > Для женщин > Rubino Cosmetics > RUBINO COSMETICS PREDATEUR OU PROIE EDP 50 ml spray,66454,Да
RUBINO COSMETICS PROVIDENCE EDP 75 ml spray,5297,Не указано,Главная > Парфюмерия > Нишевая парфюмерия > Для женщин > Rubino Cosmetics > RUBINO COSMETICS PROVIDENCE EDP 75 ml spray,66455,Да
