name,price,min_delivery_time,category,sku,is_avalilable
HUGH PARSONS OXFORD STREET EDP 100 ml spray,2013,Не указано,Главная > Парфюмерия > Мужская парфюмерия > Hugh Parsons > HUGH PARSONS OXFORD STREET EDP 100 ml spray,68929,Да
HUGH PARSONS OXFORD STREET EDP 30 ml spray,1055,Не указано,Главная > Парфюмерия > Мужская парфюмерия > Hugh Parsons > HUGH PARSONS OXFORD STREET EDP 30 ml spray,67665,Да
HUGH PARSONS PICADILLY CIRCUS EDP 50 ml spray,1507,Не указано,Главная > Парфюмерия > Мужская парфюмерия > Hugh Parsons > HUGH PARSONS PICADILLY CIRCUS EDP 50 ml spray,67669,Да
HUGH PARSONS PICADILLY CIRCUS EDP 30 ml spray,1055,Не указано,Главная > Парфюмерия > Мужская парфюмерия > Hugh Parsons > HUGH PARSONS PICADILLY CIRCUS EDP 30 ml spray,67668,Да
