name,price,min_delivery_time,category,sku,is_avalilable
Bois Blonds EDC 30 ml spray,1625,Не указано,Главная > Парфюмерия > Нишевая парфюмерия > Для мужчин > Atelier Cologne > Bois Blonds EDC 30 ml spray,71407,Да
Trefle Pur EDC 200 ml spray,2903,Не указано,Главная > Парфюмерия > Нишевая парфюмерия > Для мужчин > Atelier Cologne > Trefle Pur EDC 200 ml spray,71420,Да
Trefle Pur EDC 30 ml spray,1625,Не указано,Главная > Парфюмерия > Нишевая парфюмерия > Для мужчин > Atelier Cologne > Trefle Pur EDC 30 ml spray,71422,Да
Vetiver Fatal EDC 30 ml spray,1625,Не указано,Главная > Парфюмерия > Нишевая парфюмерия > Для мужчин > Atelier Cologne > Vetiver Fatal EDC 30 ml spray,71425,Да
