name,price,min_delivery_time,category,sku,is_avalilable
Delicate Rose TESTER EDT 100 ml spray,915,Не указано,Главная > Парфюмерия > Женская парфюмерия > Trussardi > Delicate Rose TESTER EDT 100 ml spray,70473,Да
Delicate Rose EDT 100 ml spray,1027,Не указано,Главная > Парфюмерия > Женская парфюмерия > Trussardi > Delicate Rose EDT 100 ml spray,70469,Да
Delicate Rose EDT 50 ml spray,753,Не указано,Главная > Парфюмерия > Женская парфюмерия > Trussardi > Delicate Rose EDT 50 ml spray,70472,Да
Delicate Rose EDT 30 ml spray,613,Не указано,Главная > Парфюмерия > Женская парфюмерия > Trussardi > Delicate Rose EDT 30 ml spray,70471,Да
Donna Trussardi 2011 DEO 100 ml spray,630,Не указано,Главная > Парфюмерия > Женская парфюмерия > Trussardi > Donna Trussardi 2011 DEO 100 ml spray,70474,Да
A Way For Her TESTER EDT 100 ml spray,727,Не указано,Главная > Парфюмерия > Женская парфюмерия > Trussardi > A Way For Her TESTER EDT 100 ml spray,79572,Да
A Way For Her EDT 50 ml spray,663,Не указано,Главная > Парфюмерия > Женская парфюмерия > Trussardi > A Way For Her EDT 50 ml spray,79571,Да
Donna Trussardi 2011 EDP 100 ml spray,1135,Не указано,Главная > Парфюмерия > Женская парфюмерия > Trussardi > Donna Trussardi 2011 EDP 100 ml spray,70475,Да
Donna Trussardi 2011 TESTER EDP 100 ml spray,915,Не указано,Главная > Парфюмерия > Женская парфюмерия > Trussardi > Donna Trussardi 2011 TESTER EDP 100 ml spray,68012,Да
Donna Trussardi 2011 EDP 50 ml spray,885,Не указано,Главная > Парфюмерия > Женская парфюмерия > Trussardi > Donna Trussardi 2011 EDP 50 ml spray,68011,Да
Donna Trussardi 2011 EDP 30 ml spray,613,Не указано,Главная > Парфюмерия > Женская парфюмерия > Trussardi > Donna Trussardi 2011 EDP 30 ml spray,65794,Да
My Name TESTER EDP 100 ml spray,863,Не указано,Главная > Парфюмерия > Женская парфюмерия > Trussardi > My Name TESTER EDP 100 ml spray,77954,Да
My Name EDP 50 ml spray,837,Не указано,Главная > Парфюмерия > Женская парфюмерия > Trussardi > My Name EDP 50 ml spray,78630,Да
My Name EDP 30 ml spray,535,Не указано,Главная > Парфюмерия > Женская парфюмерия > Trussardi > My Name EDP 30 ml spray,77952,Да
